<?xml version="1.0"?>
<svg width="40" height="40" xmlns="http://www.w3.org/2000/svg" xmlns:svg="http://www.w3.org/2000/svg" xmlns:xlink="http://www.w3.org/1999/xlink">
 <g>
  <title>Layer 1</title>
  <g id="svg_5">
   <a id="svg_1" xlink:href="javascript:window.pushMenuToggle()">
    <g id="svg_2">
     <polygon id="svg_3" points="40.265625,38.016876220703125 2.592498779296875,0.34375 40.265625,0.34375 " fill="#F5F3F1"/>
    </g>
    <g id="svg_4"/>
   </a>
   <polygon fill="#403c2b" points="32.34278869628906,13.31976318359375 30.359878540039062,11.33709716796875 32.34258270263672,9.354351043701172 31.276473999023438,8.288917541503906 29.29413604736328,10.271541595458984 27.311431884765625,8.2891845703125 26.24560546875,9.354412078857422 28.228561401367188,11.33721923828125 26.245895385742188,13.320259094238281 27.31109619140625,14.386085510253906 29.294174194335938,12.402801513671875 31.277420043945312,14.385879516601562 " id="x-mark-icon"/>
   <polygon id="svg_6" points="0.7656249403953552,0.34375 2.592498779296875,0.34375 40.265625,38.016876220703125 40.265625,39.84375 " fill="#403C2A" opacity="0.2"/>
  </g>
 </g>
</svg>
